…
The package provides functions to retrieve various types of FPL data,
including player information, team details, gameweek information, and
more.

### Player Information

You can obtain general player information for all 670 registered players
in the Premier League:

``` r
# General details of all players
fpl_player_info()
#> # A tibble: 670 × 9
#>    player_season_id player_name  first_name second_name       team  squad_number
#>               <int> <chr>        <chr>      <chr>             <chr> <lgl>       
#>  1                1 Balogun      Folarin    Balogun           ARS   NA          
#>  2                2 Cédric       Cédric     Alves Soares      ARS   NA          
#>  3                3 M.Elneny     Mohamed    Elneny            ARS   NA          
#>  4                4 Fábio Vieira Fábio      Ferreira Vieira   ARS   NA          
#>  5                5 Gabriel      Gabriel    dos Santos Magal… ARS   NA          
#>  6                6 Havertz      Kai        Havertz           ARS   NA          
#>  7                7 Holding      Rob        Holding           ARS   NA          
#>  8                8 G.Jesus      Gabriel    Fernando de Jesus ARS   NA          
#>  9                9 Jorginho     Jorge Luiz Frello Filho      ARS   NA          
#> 10               10 Kiwior       Jakub      Kiwior            ARS   NA          
#> # ℹ 660 more rows
#> # ℹ 3 more variables: player_position <chr>, player_fpl_code <int>,
#> #   special <lgl>
```

This function returns basic information such as names, teams, positions,
and player IDs.

For more all player season statistics, you can use:

``` r
# Season statistics of all players 
fpl_player_stats()
#> # A tibble: 670 × 53
#>    player_season_id player_name  selected_pct selected_rank selected_rank_type
#>               <int> <chr>               <dbl>         <int>              <int>
#>  1                1 Balogun             0.007           203                 37
#>  2                2 Cédric              0.004           257                 95
#>  3                3 M.Elneny            0.001           430                141
#>  4                4 Fábio Vieira        0.001           417                132
#>  5                5 Gabriel             0.265            10                  3
#>  6                6 Havertz             0.038            88                 28
#>  7                7 Holding             0.002           340                130
#>  8                8 G.Jesus             0.013           151                 27
#>  9                9 Jorginho            0.002           318                 94
#> 10               10 Kiwior              0.001           425                165
#> # ℹ 660 more rows
#> # ℹ 48 more variables: current_price <dbl>, now_cost_rank <int>,
#> #   now_cost_rank_type <int>, cost_change_start <dbl>,
#> #   cost_change_start_fall <dbl>, cost_change_event <dbl>,
#> #   cost_change_event_fall <dbl>, total_transfers_in <int>,
#> #   gw_transfers_in <int>, transfers_out <int>, transfers_out_event <int>,
#> #   minutes <int>, starts <int>, starts_per_90 <dbl>, total_points <int>, …
```
…
*Team information has not been updated as of yet on the system. A
warning will be introduced to this function if this persists.*

### Gameweek and Fixtures Information

To obtain information about gameweeks and fixtures, you can use the
following functions:

``` r
# Information on gameweeks
fpl_gameweek_info()
#> # A tibble: 38 × 17
#>    gameweek  gw_deadline         gw_finished data_checked gw_current gw_previous
#>    <chr>     <dttm>              <lgl>       <lgl>        <lgl>      <lgl>      
#>  1 Gameweek… 2023-08-11 17:30:00 TRUE        TRUE         FALSE      TRUE       
#>  2 Gameweek… 2023-08-18 17:15:00 TRUE        TRUE         TRUE       FALSE      
#>  3 Gameweek… 2023-08-25 17:30:00 FALSE       FALSE        FALSE      FALSE      
#>  4 Gameweek… 2023-09-01 17:30:00 FALSE       FALSE        FALSE      FALSE      
#>  5 Gameweek… 2023-09-16 10:00:00 FALSE       FALSE        FALSE      FALSE      
#>  6 Gameweek… 2023-09-23 12:30:00 FALSE       FALSE        FALSE      FALSE      
#>  7 Gameweek… 2023-09-30 10:00:00 FALSE       FALSE        FALSE      FALSE      
#>  8 Gameweek… 2023-10-07 10:00:00 FALSE       FALSE        FALSE      FALSE      
#>  9 Gameweek… 2023-10-21 10:00:00 FALSE       FALSE        FALSE      FALSE      
#> 10 Gameweek… 2023-10-27 17:30:00 FALSE       FALSE        FALSE      FALSE      
#> # ℹ 28 more rows
#> # ℹ 11 more variables: gw_next <lgl>, gw_highest_score <int>,
#> #   gw_average_score <int>, transfers_made <int>, chip_plays <list>,
#> #   player_most_selected <chr>, player_most_captained <chr>,
#> #   player_most_vice_captained <chr>, player_most_transferred_in <chr>,
#> #   top_player <chr>, top_player_points <int>

# Each PL fixture
fpl_fixtures_info()
#> # A tibble: 380 × 12
#>    gw_id game_id team_h team_h_score team_a team_a_score stats        
#>    <int>   <int> <chr>         <int> <chr>         <int> <list>       
#>  1     1       1 BUR               0 MCI               3 <df [10 × 3]>
#>  2     1       2 ARS               2 NFO               1 <df [10 × 3]>
#>  3     1       3 BOU               1 WHU               1 <df [10 × 3]>
#>  4     1       4 BHA               4 LUT               1 <df [10 × 3]>
#>  5     1       5 EVE               0 FUL               1 <df [10 × 3]>
#>  6     1       6 NEW               5 AVL               1 <df [10 × 3]>
#>  7     1       7 SHU               0 CRY               1 <df [10 × 3]>
#>  8     1       8 BRE               2 TOT               2 <df [10 × 3]>
#>  9     1       9 CHE               1 LIV               1 <df [10 × 3]>
#> 10     1      10 MUN               1 WOL               0 <df [10 × 3]>
#> # ℹ 370 more rows
#> # ℹ 5 more variables: kickoff_time <dttm>, kickoff_time_provisional <lgl>,
#> #   started <lgl>, finished <lgl>, fpl_game_code <int>
```
…
